^C:\USERS\TONI\DOCUMENTS\VISUAL STUDIO 2012\PROJECTS\CURSSD6LUNI\CURSSD6LUNI\LLSI.CPP|C:\USERS\TONI\DOCUMENTS\VISUAL STUDIO 2012\PROJECTS\CURSSD6LUNI\CURSSD6LUNI\SOURCE.CPP
C:\USERS\TONI\DOCUMENTS\VISUAL STUDIO 2012\PROJECTS\CURSSD6LUNI\CURSSD6LUNI\DEBUG\LLSI.OBJ
C:\USERS\TONI\DOCUMENTS\VISUAL STUDIO 2012\PROJECTS\CURSSD6LUNI\CURSSD6LUNI\DEBUG\SOURCE.OBJ
^C:\USERS\TONI\DOCUMENTS\VISUAL STUDIO 2012\PROJECTS\CURSSD6LUNI\CURSSD6LUNI\LLSI.CPP
C:\USERS\TONI\DOCUMENTS\VISUAL STUDIO 2012\PROJECTS\CURSSD6LUNI\CURSSD6LUNI\DEBUG\VC110.PDB
^C:\USERS\TONI\DOCUMENTS\VISUAL STUDIO 2012\PROJECTS\CURSSD6LUNI\CURSSD6LUNI\SOURCE.CPP
C:\USERS\TONI\DOCUMENTS\VISUAL STUDIO 2012\PROJECTS\CURSSD6LUNI\CURSSD6LUNI\DEBUG\VC110.PDB
C:\USERS\TONI\DOCUMENTS\VISUAL STUDIO 2012\PROJECTS\CURSSD6LUNI\CURSSD6LUNI\DEBUG\SOURCE.OBJ
